{
    "AAIT": {
        "current": 30.53,
        "high": 30.53,
        "low": 30.17,
        "open": 0,
        "previous_close": 30.2135,
        "volume": 1440187200
    },
    "AAL": {
        "current": 21.285,
        "high": 21.69,
        "low": 21.02,
        "open": 21.35,
        "previous_close": 21.16,
        "volume": 1627068466
    },
    "AAME": {
        "current": 4.04,
        "high": 4.05,
        "low": 3.8,
        "open": 3.99,
        "previous_close": 3.98,
        "volume": 1627068366
    },
    "AAOI": {
        "current": 7.4184,
        "high": 7.4184,
        "low": 7.18,
        "open": 7.37,
        "previous_close": 7.4,
        "volume": 1627068388
    },
    "AAON": {
        "current": 60.45,
        "high": 60.76,
        "low": 59.76,
        "open": 60.29,
        "previous_close": 60.09,
        "volume": 1627068402
    },
    "AAPL": {
        "current": 148.285,
        "high": 148.7113,
        "low": 146.92,
        "open": 147.55,
        "previous_close": 146.8,
        "volume": 1627068471
    },
    "AAWW": {
        "current": 65.43,
        "high": 65.43,
        "low": 64.17,
        "open": 65.37,
        "previous_close": 64.87,
        "volume": 1627068420
    },
    "AAXJ": {
        "current": 89.79,
        "high": 90.26,
        "low": 89.33,
        "open": 90.04,
        "previous_close": 91.32,
        "volume": 1627068480
    },
    "ABCB": {
        "current": 45.6,
        "high": 46.29,
        "low": 45.06,
        "open": 45.69,
        "previous_close": 45.7,
        "volume": 1627068475
    },
    "ABIO": {
        "current": 2.99,
        "high": 3.1613,
        "low": 2.96,
        "open": 3.15,
        "previous_close": 3.12,
        "volume": 1627068509
    },
    "ABMD": {
        "current": 327.38,
        "high": 328.445,
        "low": 323.84,
        "open": 327.44,
        "previous_close": 323.54,
        "volume": 1627068268
    },
    "ACAD": {
        "current": 21.44,
        "high": 22.24,
        "low": 21.32,
        "open": 22.17,
        "previous_close": 22.23,
        "volume": 1627068500
    },
    "ACET": {
        "current": 7.97,
        "high": 8.16,
        "low": 7.8069,
        "open": 8.16,
        "previous_close": 8.2,
        "volume": 1627068273
    },
    "ACFN": {
        "current": 0.6,
        "high": 0.61,
        "low": 0.56,
        "open": 0.56,
        "previous_close": 0.5975,
        "volume": 1627066377
    },
    "ACGL": {
        "current": 38.43,
        "high": 38.64,
        "low": 38.26,
        "open": 38.54,
        "previous_close": 38.13,
        "volume": 1627068542
    },
    "ACHC": {
        "current": 61.6,
        "high": 61.85,
        "low": 60.93,
        "open": 61.43,
        "previous_close": 61.13,
        "volume": 1627068511
    },
    "ACIW": {
        "current": 35.185,
        "high": 35.37,
        "low": 34.94,
        "open": 35.01,
        "previous_close": 34.77,
        "volume": 1627068476
    },
    "ACLS": {
        "current": 37.565,
        "high": 38.03,
        "low": 37.05,
        "open": 37.71,
        "previous_close": 37.4,
        "volume": 1627068411
    },
    "ACNB": {
        "current": 28.085,
        "high": 28.2,
        "low": 27.6653,
        "open": 27.73,
        "previous_close": 27.76,
        "volume": 1627068398
    },
    "ACOR": {
        "current": 4.6,
        "high": 6.36,
        "low": 4.42,
        "open": 5.28,
        "previous_close": 3.81,
        "volume": 1627068508
    },
    "ACRX": {
        "current": 1.255,
        "high": 1.2992,
        "low": 1.25,
        "open": 1.29,
        "previous_close": 1.27,
        "volume": 1627068344
    },
    "ACST": {
        "current": 0.4805,
        "high": 0.486,
        "low": 0.4728,
        "open": 0.486,
        "previous_close": 0.4966,
        "volume": 1627068325
    },
    "ACTG": {
        "current": 5.84,
        "high": 5.975,
        "low": 5.79,
        "open": 5.97,
        "previous_close": 5.94,
        "volume": 1627068343
    },
    "ACUR": {
        "current": 0.6351,
        "high": 0.65,
        "low": 0.4801,
        "open": 0.65,
        "previous_close": 0.65,
        "volume": 1627065839
    },
    "ACWI": {
        "current": 102.34,
        "high": 102.48,
        "low": 101.895,
        "open": 102.15,
        "previous_close": 101.77,
        "volume": 1627068531
    },
    "ACWX": {
        "current": 56.72,
        "high": 56.84,
        "low": 56.59,
        "open": 56.84,
        "previous_close": 56.74,
        "volume": 1627068547
    },
    "ADBE": {
        "current": 625.97,
        "high": 631.64,
        "low": 622.0001,
        "open": 625.76,
        "previous_close": 623.68,
        "volume": 1627068456
    },
    "ADES": {
        "current": 7.09,
        "high": 7.22,
        "low": 6.73,
        "open": 6.87,
        "previous_close": 6.77,
        "volume": 1627068524
    },
    "ADI": {
        "current": 163.155,
        "high": 163.84,
        "low": 161.67,
        "open": 163.23,
        "previous_close": 162.02,
        "volume": 1627068314
    },
    "ADMA": {
        "current": 1.595,
        "high": 1.6,
        "low": 1.56,
        "open": 1.57,
        "previous_close": 1.58,
        "volume": 1627068279
    },
    "ADMP": {
        "current": 1.025,
        "high": 1.055,
        "low": 1.01,
        "open": 1.05,
        "previous_close": 1.06,
        "volume": 1627068250
    },
    "ADMS": {
        "current": 4.94,
        "high": 5.025,
        "low": 4.83,
        "open": 5.02,
        "previous_close": 5.02,
        "volume": 1627068248
    },
    "ADP": {
        "current": 206,
        "high": 206.39,
        "low": 203.47,
        "open": 204.29,
        "previous_close": 203.29,
        "volume": 1627068244
    },
    "ADRA": {
        "current": 9.71,
        "high": 9.71,
        "low": 9.71,
        "open": 9.71,
        "previous_close": 9.71,
        "volume": 1627059742
    },
    "ADRD": {
        "current": 22.225,
        "high": 22.2797,
        "low": 22.19,
        "open": 22.2797,
        "previous_close": 22.385,
        "volume": 1581623149
    },
    "ADRE": {
        "current": 53.556,
        "high": 53.89,
        "low": 53.19,
        "open": 53.89,
        "previous_close": 55.02,
        "volume": 1627067483
    },
    "ADRU": {
        "current": 21.57,
        "high": 21.6,
        "low": 21.55,
        "open": 21.6,
        "previous_close": 21.755,
        "volume": 1581623816
    },
    "ADSK": {
        "current": 312.435,
        "high": 314.92,
        "low": 309.3,
        "open": 310.19,
        "previous_close": 308.51,
        "volume": 1627068271
    },
    "ADTN": {
        "current": 22.04,
        "high": 22.14,
        "low": 21.32,
        "open": 21.37,
        "previous_close": 21.29,
        "volume": 1627068264
    },
    "ADUS": {
        "current": 84.1,
        "high": 84.24,
        "low": 82.28,
        "open": 82.45,
        "previous_close": 82.64,
        "volume": 1627068281
    },
    "ADXS": {
        "current": 0.4192,
        "high": 0.4369,
        "low": 0.412,
        "open": 0.4351,
        "previous_close": 0.434,
        "volume": 1627068261
    },
    "AEHR": {
        "current": 6.03,
        "high": 6.58,
        "low": 5.5701,
        "open": 6.12,
        "previous_close": 6.195,
        "volume": 1627068272
    },
    "AEIS": {
        "current": 101.5725,
        "high": 102.12,
        "low": 100.88,
        "open": 101.78,
        "previous_close": 101.08,
        "volume": 1627068245
    },
    "AERI": {
        "current": 15.55,
        "high": 15.85,
        "low": 15.28,
        "open": 15.825,
        "previous_close": 15.53,
        "volume": 1627068271
    },
    "AEY": {
        "current": 2.365,
        "high": 2.4636,
        "low": 2.365,
        "open": 2.42,
        "previous_close": 2.38,
        "volume": 1627067165
    },
    "AEZS": {
        "current": 0.7179,
        "high": 0.7325,
        "low": 0.7,
        "open": 0.723,
        "previous_close": 0.7341,
        "volume": 1627068219
    },
    "AFMD": {
        "current": 6.92,
        "high": 7.03,
        "low": 6.63,
        "open": 6.71,
        "previous_close": 6.63,
        "volume": 1627068296
    },
    "AGEN": {
        "current": 5.615,
        "high": 5.64,
        "low": 5.5,
        "open": 5.57,
        "previous_close": 5.58,
        "volume": 1627068302
    },
    "AGIO": {
        "current": 50.07,
        "high": 51.86,
        "low": 49.05,
        "open": 51.43,
        "previous_close": 51.15,
        "volume": 1627068371
    },
    "AGNC": {
        "current": 16.11,
        "high": 16.355,
        "low": 16.07,
        "open": 16.3342,
        "previous_close": 16.2,
        "volume": 1627068311
    },
    "AGNCP": {
        "current": 25.1943,
        "high": 25.1943,
        "low": 25.15,
        "open": 25.17,
        "previous_close": 25.17,
        "volume": 1627067871
    },
    "AGND": {
        "current": 38.125,
        "high": 38.18,
        "low": 37.84,
        "open": 38.18,
        "previous_close": 37.96,
        "volume": 1590606106
    },
    "AGRX": {
        "current": 1.15,
        "high": 1.22,
        "low": 1.15,
        "open": 1.21,
        "previous_close": 1.21,
        "volume": 1627068270
    },
    "AGTC": {
        "current": 3.73,
        "high": 3.88,
        "low": 3.6958,
        "open": 3.88,
        "previous_close": 3.81,
        "volume": 1627068273
    },
    "AGYS": {
        "current": 54.73,
        "high": 56.475,
        "low": 53.91,
        "open": 55,
        "previous_close": 54.72,
        "volume": 1627067472
    },
    "AGZD": {
        "current": 46.93,
        "high": 47,
        "low": 46.93,
        "open": 46.93,
        "previous_close": 46.92,
        "volume": 1627064991
    },
    "AHPI": {
        "current": 5.6299,
        "high": 6.65,
        "low": 5.55,
        "open": 5.98,
        "previous_close": 6.18,
        "volume": 1627068343
    },
    "AIMC": {
        "current": 62.005,
        "high": 65,
        "low": 60.52,
        "open": 65,
        "previous_close": 62.8,
        "volume": 1627068273
    },
    "AINV": {
        "current": 13.78,
        "high": 13.95,
        "low": 13.66,
        "open": 13.95,
        "previous_close": 13.76,
        "volume": 1627068220
    },
    "AIQ": {
        "current": 30.975,
        "high": 31,
        "low": 30.8103,
        "open": 30.94,
        "previous_close": 30.84,
        "volume": 1627068296
    },
    "AIRR": {
        "current": 40.081,
        "high": 40.105,
        "low": 39.6,
        "open": 39.98,
        "previous_close": 39.63,
        "volume": 1627068234
    },
    "AIRT": {
        "current": 28.5,
        "high": 29.21,
        "low": 27.78,
        "open": 27.78,
        "previous_close": 27.66,
        "volume": 1627063006
    },
    "AKAM": {
        "current": 119.49,
        "high": 120.665,
        "low": 116.56,
        "open": 117.42,
        "previous_close": 116.96,
        "volume": 1627068300
    },
    "AKBA": {
        "current": 2.548,
        "high": 2.61,
        "low": 2.5,
        "open": 2.6,
        "previous_close": 2.55,
        "volume": 1627068262
    },
    "ALCO": {
        "current": 36.48,
        "high": 36.7099,
        "low": 36.12,
        "open": 36.52,
        "previous_close": 36.27,
        "volume": 1627068305
    },
    "ALDX": {
        "current": 9.1,
        "high": 9.27,
        "low": 8.92,
        "open": 9.27,
        "previous_close": 9.18,
        "volume": 1627068370
    },
    "ALGN": {
        "current": 637.13,
        "high": 639.615,
        "low": 626.04,
        "open": 624.9,
        "previous_close": 627.92,
        "volume": 1627068268
    },
    "ALGT": {
        "current": 189.73,
        "high": 194.97,
        "low": 188.63,
        "open": 193.21,
        "previous_close": 190.9,
        "volume": 1627068385
    },
    "ALIM": {
        "current": 8.87,
        "high": 9.15,
        "low": 8.87,
        "open": 9.15,
        "previous_close": 9.08,
        "volume": 1627067295
    },
    "ALKS": {
        "current": 24.415,
        "high": 24.53,
        "low": 24.08,
        "open": 24.26,
        "previous_close": 24.15,
        "volume": 1627068396
    },
    "ALLT": {
        "current": 17.4,
        "high": 18.3499,
        "low": 17.29,
        "open": 17.98,
        "previous_close": 17.94,
        "volume": 1627068258
    },
    "ALNY": {
        "current": 183.055,
        "high": 183.215,
        "low": 180.11,
        "open": 182,
        "previous_close": 181.81,
        "volume": 1627068370
    },
    "ALOT": {
        "current": 15.19,
        "high": 15.19,
        "low": 15.16,
        "open": 15.15,
        "previous_close": 15.2,
        "volume": 1627059043
    },
    "ALSK": {
        "current": 3.4,
        "high": 3.4,
        "low": 3.38,
        "open": 3.38,
        "previous_close": 3.39,
        "volume": 1626984002
    },
    "ALTR": {
        "current": 67.85,
        "high": 68.4699,
        "low": 66.5601,
        "open": 66.95,
        "previous_close": 66.95,
        "volume": 1627068375
    },
    "ALXN": {
        "current": 182.5,
        "high": 182.67,
        "low": 180.21,
        "open": 181.04,
        "previous_close": 182.5,
        "volume": 1626811203
    },
    "AMAT": {
        "current": 138.01,
        "high": 139,
        "low": 136.57,
        "open": 137.949,
        "previous_close": 137.18,
        "volume": 1627068431
    },
    "AMBA": {
        "current": 92.68,
        "high": 93.72,
        "low": 91.68,
        "open": 93.72,
        "previous_close": 93.07,
        "volume": 1627068247
    },
    "AMBC": {
        "current": 14.005,
        "high": 14.06,
        "low": 13.73,
        "open": 13.92,
        "previous_close": 13.95,
        "volume": 1627068412
    },
    "AMCF": {
        "current": 0.0521,
        "high": 0.0521,
        "low": 0.0521,
        "open": 0.0521,
        "previous_close": 0.0521,
        "volume": 1627047008
    },
    "AMCX": {
        "current": 51.99,
        "high": 54.41,
        "low": 51.64,
        "open": 53.98,
        "previous_close": 53.43,
        "volume": 1627068440
    },
    "AMD": {
        "current": 91.9922,
        "high": 92.37,
        "low": 90.19,
        "open": 91.3484,
        "previous_close": 91.21,
        "volume": 1627068453
    },
    "AMED": {
        "current": 263.32,
        "high": 263.89,
        "low": 257.04,
        "open": 259.24,
        "previous_close": 258.27,
        "volume": 1627068135
    },
    "AMGN": {
        "current": 246.9,
        "high": 248.53,
        "low": 244.87,
        "open": 246.27,
        "previous_close": 244.74,
        "volume": 1627068461
    },
    "AMKR": {
        "current": 22.875,
        "high": 23.055,
        "low": 22.61,
        "open": 23.03,
        "previous_close": 22.88,
        "volume": 1627068454
    },
    "AMNB": {
        "current": 29.2442,
        "high": 29.94,
        "low": 29.17,
        "open": 30.37,
        "previous_close": 29.7,
        "volume": 1627068423
    },
    "AMOT": {
        "current": 32.48,
        "high": 32.59,
        "low": 31.68,
        "open": 32.59,
        "previous_close": 32.3,
        "volume": 1627065151
    },
    "AMOV": {
        "current": 15.59,
        "high": 15.71,
        "low": 15.59,
        "open": 15.83,
        "previous_close": 15.58,
        "volume": 1627068222
    },
    "AMPH": {
        "current": 20.8,
        "high": 20.8,
        "low": 20.31,
        "open": 20.48,
        "previous_close": 20.41,
        "volume": 1627068443
    },
    "AMRB": {
        "current": 18.54,
        "high": 18.7,
        "low": 17.68,
        "open": 18.41,
        "previous_close": 18.51,
        "volume": 1627067485
    },
    "AMRK": {
        "current": 47.23,
        "high": 47.97,
        "low": 46.2684,
        "open": 47.8,
        "previous_close": 47.2,
        "volume": 1627066846
    },
    "AMRN": {
        "current": 4.03,
        "high": 4.12,
        "low": 4.01,
        "open": 4.12,
        "previous_close": 4.12,
        "volume": 1627068398
    },
    "AMRS": {
        "current": 15.47,
        "high": 15.96,
        "low": 14.8,
        "open": 15.85,
        "previous_close": 15.84,
        "volume": 1627068441
    },
    "AMSC": {
        "current": 14.06,
        "high": 14.65,
        "low": 13.96,
        "open": 14.65,
        "previous_close": 14.48,
        "volume": 1627068355
    },
    "BANX": {
        "current": 21.765,
        "high": 21.98,
        "low": 21.12,
        "open": 21.12,
        "previous_close": 21.47,
        "volume": 1627067450
    },
    "BBBY": {
        "current": 28.725,
        "high": 29.66,
        "low": 28.56,
        "open": 29.53,
        "previous_close": 29.41,
        "volume": 1627068800
    },
    "BBC": {
        "current": 46.8746,
        "high": 46.95,
        "low": 46.8746,
        "open": 46.95,
        "previous_close": 46.8746,
        "volume": 1626983012
    },
    "BBGI": {
        "current": 2.58,
        "high": 2.632,
        "low": 2.53,
        "open": 2.62,
        "previous_close": 2.56,
        "volume": 1627066754
    },
    "BBP": {
        "current": 51.4205,
        "high": 51.4205,
        "low": 51.4205,
        "open": 51,
        "previous_close": 50.6861,
        "volume": 1626802319
    },
    "BBSI": {
        "current": 70.9,
        "high": 71.13,
        "low": 70.82,
        "open": 71.06,
        "previous_close": 70.21,
        "volume": 1627062375
    },
    "BCBP": {
        "current": 14.52,
        "high": 14.96,
        "low": 14.48,
        "open": 14.84,
        "previous_close": 14.72,
        "volume": 1627068675
    },
    "BCLI": {
        "current": 3.34,
        "high": 3.4799,
        "low": 3.31,
        "open": 3.46,
        "previous_close": 3.48,
        "volume": 1627068806
    },
    "BCOR": {
        "current": 16.24,
        "high": 16.45,
        "low": 16.045,
        "open": 16.28,
        "previous_close": 16.13,
        "volume": 1627068748
    },
    "BCOV": {
        "current": 12.89,
        "high": 12.95,
        "low": 12.6,
        "open": 12.75,
        "previous_close": 12.68,
        "volume": 1627068844
    },
    "BCPC": {
        "current": 131.32,
        "high": 131.49,
        "low": 129.7025,
        "open": 130.08,
        "previous_close": 129.75,
        "volume": 1627068212
    },
    "BCRX": {
        "current": 17.355,
        "high": 17.61,
        "low": 16.7573,
        "open": 17.09,
        "previous_close": 16.97,
        "volume": 1627068811
    },
    "BDSI": {
        "current": 3.665,
        "high": 3.69,
        "low": 3.5899,
        "open": 3.69,
        "previous_close": 3.69,
        "volume": 1627068809
    },
    "BEBE": {
        "current": 5.35,
        "high": 5.35,
        "low": 5.35,
        "open": 5.35,
        "previous_close": 5.35,
        "volume": 1626894386
    },
    "BECN": {
        "current": 53.5,
        "high": 53.66,
        "low": 52.39,
        "open": 52.75,
        "previous_close": 52.4,
        "volume": 1627068689
    },
    "BELFA": {
        "current": 13.9099,
        "high": 13.9099,
        "low": 13.9099,
        "open": 13.9099,
        "previous_close": 13.9168,
        "volume": 1627060001
    },
    "BELFB": {
        "current": 12.685,
        "high": 12.98,
        "low": 12.38,
        "open": 12.77,
        "previous_close": 12.8,
        "volume": 1627068621
    },
    "BFIN": {
        "current": 11.28,
        "high": 11.31,
        "low": 11.26,
        "open": 11.31,
        "previous_close": 11.3,
        "volume": 1627068729
    },
    "BGCP": {
        "current": 5.325,
        "high": 5.415,
        "low": 5.25,
        "open": 5.415,
        "previous_close": 5.31,
        "volume": 1627068839
    },
    "BGFV": {
        "current": 23.075,
        "high": 23.585,
        "low": 22.61,
        "open": 23.34,
        "previous_close": 23.16,
        "volume": 1627068824
    },
    "BGMD": {
        "current": 0.0323,
        "high": 0.0325,
        "low": 0.0253,
        "open": 0.0301,
        "previous_close": 0.0399,
        "volume": 1627060146
    },
    "BIB": {
        "current": 99.53,
        "high": 99.77,
        "low": 97.165,
        "open": 98.79,
        "previous_close": 98.25,
        "volume": 1627068316
    },
    "BICK": {
        "current": 37.9,
        "high": 38.19,
        "low": 37.9,
        "open": 38.19,
        "previous_close": 38.7788,
        "volume": 1627053091
    },
    "BIDU": {
        "current": 173.13,
        "high": 173.3999,
        "low": 167.84,
        "open": 172.65,
        "previous_close": 178.49,
        "volume": 1627068828
    },
    "BIIB": {
        "current": 325.08,
        "high": 328.15,
        "low": 319.85,
        "open": 322.1,
        "previous_close": 326.36,
        "volume": 1627068804
    },
    "BIOC": {
        "current": 4.085,
        "high": 4.18,
        "low": 4.02,
        "open": 4.18,
        "previous_close": 4.16,
        "volume": 1627068708
    },
    "BIOL": {
        "current": 0.5867,
        "high": 0.6154,
        "low": 0.583,
        "open": 0.614,
        "previous_close": 0.6082,
        "volume": 1627068886
    },
    "BIS": {
        "current": 18.04,
        "high": 18.3799,
        "low": 18,
        "open": 18.19,
        "previous_close": 18.2733,
        "volume": 1627067738
    },
    "BJRI": {
        "current": 44.3,
        "high": 44.99,
        "low": 43.61,
        "open": 44.84,
        "previous_close": 44.5,
        "volume": 1627068884
    },
    "BKCC": {
        "current": 3.9401,
        "high": 3.97,
        "low": 3.86,
        "open": 3.89,
        "previous_close": 3.88,
        "volume": 1627068844
    },
    "BKEP": {
        "current": 3.565,
        "high": 3.63,
        "low": 3.54,
        "open": 3.63,
        "previous_close": 3.64,
        "volume": 1627068751
    },
    "BKEPP": {
        "current": 8.1465,
        "high": 8.1465,
        "low": 8.08,
        "open": 8.08,
        "previous_close": 8.08,
        "volume": 1627065257
    },
    "BKSC": {
        "current": 20.1075,
        "high": 20.15,
        "low": 20.0393,
        "open": 20.1067,
        "previous_close": 20.15,
        "volume": 1627062201
    },
    "BLCM": {
        "current": 2.97,
        "high": 3,
        "low": 2.93,
        "open": 2.99,
        "previous_close": 2.99,
        "volume": 1627068430
    },
    "BLDP": {
        "current": 15.8,
        "high": 16.12,
        "low": 15.59,
        "open": 16.035,
        "previous_close": 16.11,
        "volume": 1627068876
    },
    "BLDR": {
        "current": 45.495,
        "high": 45.69,
        "low": 44.55,
        "open": 44.93,
        "previous_close": 44.55,
        "volume": 1627068877
    },
    "BLFS": {
        "current": 46.72,
        "high": 46.89,
        "low": 45.77,
        "open": 46.74,
        "previous_close": 46.44,
        "volume": 1627068854
    },
    "BLIN": {
        "current": 5.45,
        "high": 6.18,
        "low": 5.4,
        "open": 5.9,
        "previous_close": 6.01,
        "volume": 1627068791
    },
    "BLKB": {
        "current": 71.64,
        "high": 72.25,
        "low": 69.74,
        "open": 70.82,
        "previous_close": 70.3,
        "volume": 1627068777
    },
    "BLMN": {
        "current": 25.5901,
        "high": 26.13,
        "low": 25.27,
        "open": 26.01,
        "previous_close": 25.64,
        "volume": 1627068842
    },
    "BLRX": {
        "current": 3.2405,
        "high": 3.34,
        "low": 3.22,
        "open": 3.26,
        "previous_close": 3.29,
        "volume": 1627068735
    },
    "BLUE": {
        "current": 26.02,
        "high": 27,
        "low": 25.68,
        "open": 26.95,
        "previous_close": 26.98,
        "volume": 1627068805
    },
    "BLVDU": {
        "current": 10.47,
        "high": 10.5,
        "low": 10.3986,
        "open": 10.5,
        "previous_close": 10.52,
        "volume": 1561759658
    },
    "DSLV": {
        "current": 9.39,
        "high": 9.565,
        "low": 9.184,
        "open": 9.47,
        "previous_close": 9.26,
        "volume": 1593720002
    },
    "DSPG": {
        "current": 14.605,
        "high": 14.65,
        "low": 14.28,
        "open": 14.49,
        "previous_close": 14.5,
        "volume": 1627068962
    },
    "DSWL": {
        "current": 4.5319,
        "high": 4.54,
        "low": 4.5,
        "open": 4.54,
        "previous_close": 4.5,
        "volume": 1627067697
    },
    "DTUL": {
        "current": 75.39,
        "high": 62.7657,
        "low": 62.7657,
        "open": 72.83,
        "previous_close": 63.72,
        "volume": 1591626117
    },
    "DTUS": {
        "current": 21.35,
        "high": 21.12,
        "low": 21.12,
        "open": 21.12,
        "previous_close": 21.77,
        "volume": 1596125093
    },
    "DTYL": {
        "current": 98.6802,
        "high": 97.8527,
        "low": 97.84,
        "open": 99.15,
        "previous_close": 97.7575,
        "volume": 1596732410
    },
    "DTYS": {
        "current": 120,
        "high": 11.99,
        "low": 11.87,
        "open": 4.17,
        "previous_close": 11.7774,
        "volume": 1583783996
    },
    "DVAX": {
        "current": 9.5,
        "high": 9.785,
        "low": 9.14,
        "open": 9.75,
        "previous_close": 9.71,
        "volume": 1627069066
    },
    "DVCR": {
        "current": 3.3,
        "high": 3.3,
        "low": 3.3,
        "open": 3.3,
        "previous_close": 3.3,
        "volume": 1626711589
    },
    "DWAT": {
        "current": 13.08,
        "high": 13.08,
        "low": 13,
        "open": 13,
        "previous_close": 13.08,
        "volume": 1626882391
    },
    "DWSN": {
        "current": 2.7153,
        "high": 2.93,
        "low": 2.68,
        "open": 2.85,
        "previous_close": 2.98,
        "volume": 1627068195
    },
    "DXCM": {
        "current": 461.0369,
        "high": 463.2,
        "low": 450.37,
        "open": 452.65,
        "previous_close": 450.89,
        "volume": 1627069066
    },
    "DXGE": {
        "current": 35.7336,
        "high": 35.87,
        "low": 35.7336,
        "open": 35.75,
        "previous_close": 35.406,
        "volume": 1627066428
    },
    "DXJS": {
        "current": 44.025,
        "high": 44.11,
        "low": 43.95,
        "open": 44.04,
        "previous_close": 43.6035,
        "volume": 1627068817
    },
    "DXLG": {
        "current": 4.74,
        "high": 4.79,
        "low": 4.4,
        "open": 4.46,
        "previous_close": 4.4492,
        "volume": 1627068201
    },
    "DXPE": {
        "current": 32.29,
        "high": 33.2295,
        "low": 31.53,
        "open": 31.93,
        "previous_close": 31.58,
        "volume": 1627068113
    },
    "DXYN": {
        "current": 2.895,
        "high": 2.95,
        "low": 2.895,
        "open": 2.9,
        "previous_close": 2.91,
        "volume": 1627061007
    },
    "DYNT": {
        "current": 1.3054,
        "high": 1.3799,
        "low": 1.1607,
        "open": 1.1922,
        "previous_close": 1.18,
        "volume": 1627069101
    },
    "DYSL": {
        "current": 1.235,
        "high": 1.235,
        "low": 1.235,
        "open": 1.235,
        "previous_close": 1.25,
        "volume": 1627061546
    },
    "EA": {
        "current": 145.14,
        "high": 145.36,
        "low": 141.77,
        "open": 142.65,
        "previous_close": 142.29,
        "volume": 1627069064
    },
    "EAC": {
        "current": 9.74,
        "high": 9.74,
        "low": 9.74,
        "open": 9.68,
        "previous_close": 9.69,
        "volume": 1627047001
    },
    "EARS": {
        "current": 3.085,
        "high": 3.09,
        "low": 3.0004,
        "open": 3.08,
        "previous_close": 3.1,
        "volume": 1627069012
    },
    "EBAY": {
        "current": 73.635,
        "high": 73.64,
        "low": 71.66,
        "open": 72.12,
        "previous_close": 72.06,
        "volume": 1627069089
    },
    "EBIX": {
        "current": 29.39,
        "high": 30.09,
        "low": 29.08,
        "open": 30.09,
        "previous_close": 29.91,
        "volume": 1627068628
    },
    "EBMT": {
        "current": 22.365,
        "high": 22.7527,
        "low": 22.365,
        "open": 22.39,
        "previous_close": 22.44,
        "volume": 1627068946
    },
    "EBSB": {
        "current": 18.98,
        "high": 19.14,
        "low": 18.75,
        "open": 18.98,
        "previous_close": 18.83,
        "volume": 1627069066
    },
    "EBTC": {
        "current": 32.84,
        "high": 32.84,
        "low": 32.44,
        "open": 32.62,
        "previous_close": 32.38,
        "volume": 1627065975
    },
    "ECHO": {
        "current": 28.34,
        "high": 28.7691,
        "low": 28.07,
        "open": 28.7691,
        "previous_close": 28.31,
        "volume": 1627068884
    },
    "ECOL": {
        "current": 36.87,
        "high": 37.03,
        "low": 36.52,
        "open": 36.92,
        "previous_close": 36.74,
        "volume": 1627068904
    },
    "ECPG": {
        "current": 45.75,
        "high": 46.48,
        "low": 45.56,
        "open": 46.48,
        "previous_close": 46.15,
        "volume": 1627069090
    },
    "ECTE": {
        "current": 0.0001,
        "high": 0.0001,
        "low": 0.0001,
        "open": 0.0001,
        "previous_close": 0.0001,
        "volume": 1626961015
    },
    "EDAP": {
        "current": 5.8813,
        "high": 6.135,
        "low": 5.8813,
        "open": 6.08,
        "previous_close": 6.1,
        "volume": 1627068565
    },
    "EDUC": {
        "current": 11.5013,
        "high": 11.84,
        "low": 11.32,
        "open": 11.7,
        "previous_close": 11.7,
        "volume": 1627068740
    },
    "EEFT": {
        "current": 132.52,
        "high": 134.69,
        "low": 131.02,
        "open": 132.87,
        "previous_close": 131.49,
        "volume": 1627069114
    },
    "EEMA": {
        "current": 88.0901,
        "high": 88.43,
        "low": 87.7776,
        "open": 88.43,
        "previous_close": 89.6,
        "volume": 1627068956
    }
}